…
## Usage

``` r
library(unjuris)

# current version
packageVersion("unjuris")
## [1] '0.1.0'
```

``` r
library(tibble) # for pretty printing

(xdf <- juris_search(year_start = 2019, year_end = 2020))
## # A tibble: 61 x 10
##    display_name  treaties countries  symbols date_of_adoptio… issues articles communications type_of_decisio… detail_url
##    <chr>         <chr>    <chr>      <chr>   <chr>            <chr>  <chr>    <chr>          <chr>            <chr>     
##  1 A.B.          CRC      Spain      CRC/C/… 07 Feb 2020      "admi… CRC-12C… 024/2017       Adoption of vie… https://j…
##  2 N.R.          CRC      Paraguay   CRC/C/… 03 Feb 2020      "admi… CRC-10-… 030/2017       Adoption of vie… https://j…
##  3 Natalia Ciob… CEDAW    Republic … CEDAW/… 04 Nov 2019      "disc… 11(1)(E… 104/2016       Adoption of vie… https://j…
##  4 El Hasnaoui … CESCR    Spain      E/C.12… 22 Oct 2019      "hous… CESCR-1… 060/2018       Discontinuance … https://j…
##  5 López Albán … CESCR    Spain      E/C.12… 11 Oct 2019      "admi… CESCR-1… 037/2018       Adoption of vie… https://j…
##  6 S. S. R.      CESCR    Spain      E/C.12… 11 Oct 2019      "admi… CESCR-1… 051/2018       Inadmissibility… https://j…
##  7 M. L. B.      CESCR    Luxembourg E/C.12… 11 Oct 2019      "admi… CESCR-8… 020/2017       Inadmissibility… https://j…
##  8 M. T. et al   CESCR    Spain      E/C.12… 11 Oct 2019      ""     CESCR-1… 110/2019       Discontinuance … https://j…
##  9 M. P. y otros CESCR    Spain      E/C.12… 11 Oct 2019      "hous… CESCR-1… 096/2019       Discontinuance … https://j…
## 10 Z. P. y otros CESCR    Spain      E/C.12… 11 Oct 2019      "hous… CESCR-1… 043/2018       Discontinuance … https://j…
## # … with 51 more rows
…
